id,name,model_id:id,group_id:id,perm_read,perm_write,perm_create,perm_unlink

access_ppk_user,penilaian.ppk,model_prestasi_kerja,,1,0,0,0
access_tp_user,penilaian.tp,model_aspek_tp_line,,1,0,0,0
access_nt_user,penilaian.nt,model_aspek_nt_line,,1,0,0,0
access_p_user,penilaian.p,model_aspek_pribadi_line,,1,0,0,0
access_kpm_user,penilaian.kpm,model_aspek_kpm_line,,1,0,0,0

access_ppk,penilaian.ppk,model_prestasi_kerja,ab_role.group_hod_hod,1,1,1,1
access_tp,tp.nilai,model_aspek_tp_line,ab_role.group_hod_hod,1,1,1,1
access_nt,nt.nilai,model_aspek_nt_line,ab_role.group_hod_hod,1,1,1,1
access_p,p.nilai,model_aspek_pribadi_line,ab_role.group_hod_hod,1,1,1,1
access_kpm,kpm.nilai,model_aspek_kpm_line,ab_role.group_hod_hod,1,1,1,1

access_ppk_hr,penilaian.ppk,model_prestasi_kerja,ab_role.group_hod_human_resource,1,1,1,1
access_ppk_lod,penilaian.ppk,model_prestasi_kerja,ab_role.group_lod_lod,1,1,1,1
access_tp_lod,tp.nilai,model_aspek_tp_line,ab_role.group_lod_lod,1,1,1,1
access_nt_lod,nt.nilai,model_aspek_nt_line,ab_role.group_lod_lod,1,1,1,1
access_p_lod,p.nilai,model_aspek_pribadi_line,ab_role.group_lod_lod,1,1,1,1
access_kpm_lod,kpm.nilai,model_aspek_kpm_line,ab_role.group_lod_lod,1,1,1,1